%YAML 1.1
%TAG !u! tag:unity3d.com,2011:
--- !u!1 &7550680833171961156
GameObject:
  m_ObjectHideFlags: 0
  m_CorrespondingSourceObject: {fileID: 0}
  m_PrefabInstance: {fileID: 0}
  m_PrefabAsset: {fileID: 0}
  serializedVersion: 6
  m_Component:
  - component: {fileID: 2395436607159083013}
  m_Layer: 0
  m_Name: Barrier Link
  m_TagString: Untagged
  m_Icon: {fileID: 0}
  m_NavMeshLayer: 0
  m_StaticEditorFlags: 0
  m_IsActive: 1
--- !u!4 &2395436607159083013
Transform:
  m_ObjectHideFlags: 0
  m_CorrespondingSourceObject: {fileID: 0}
  m_PrefabInstance: {fileID: 0}
  m_PrefabAsset: {fileID: 0}
  m_GameObject: {fileID: 7550680833171961156}
  m_LocalRotation: {x: 0, y: 0, z: 0, w: 1}
  m_LocalPosition: {x: 0.519773, y: -7.600991, z: -33.367485}
  m_LocalScale: {x: 1, y: 1, z: 1}
  m_Children:
  - {fileID: 7909167988432107272}
  - {fileID: 8916057979380485237}
  m_Father: {fileID: 0}
  m_RootOrder: 0
  m_LocalEulerAnglesHint: {x: 0, y: 0, z: 0}
--- !u!1001 &7658858374513004771
PrefabInstance:
  m_ObjectHideFlags: 0
  serializedVersion: 2
  m_Modification:
    m_TransformParent: {fileID: 2395436607159083013}
    m_Modifications:
    - target: {fileID: -8679921383154817045, guid: 83269ef14f7e8a149b9776ece7c66dd3,
        type: 3}
      propertyPath: m_LocalPosition.x
      value: 8.046558
      objectReference: {fileID: 0}
    - target: {fileID: -8679921383154817045, guid: 83269ef14f7e8a149b9776ece7c66dd3,
        type: 3}
      propertyPath: m_LocalPosition.y
      value: 9.3019905
      objectReference: {fileID: 0}
    - target: {fileID: -8679921383154817045, guid: 83269ef14f7e8a149b9776ece7c66dd3,
        type: 3}
      propertyPath: m_LocalPosition.z
      value: -0.7534561
      objectReference: {fileID: 0}
    - target: {fileID: -8679921383154817045, guid: 83269ef14f7e8a149b9776ece7c66dd3,
        type: 3}
      propertyPath: m_LocalRotation.x
      value: -0.5000007
      objectReference: {fileID: 0}
    - target: {fileID: -8679921383154817045, guid: 83269ef14f7e8a149b9776ece7c66dd3,
        type: 3}
      propertyPath: m_LocalRotation.y
      value: 0.49999925
      objectReference: {fileID: 0}
    - target: {fileID: -8679921383154817045, guid: 83269ef14f7e8a149b9776ece7c66dd3,
        type: 3}
      propertyPath: m_LocalRotation.z
      value: 0.49999925
      objectReference: {fileID: 0}
    - target: {fileID: -8679921383154817045, guid: 83269ef14f7e8a149b9776ece7c66dd3,
        type: 3}
      propertyPath: m_LocalRotation.w
      value: 0.5000007
      objectReference: {fileID: 0}
    - target: {fileID: -8679921383154817045, guid: 83269ef14f7e8a149b9776ece7c66dd3,
        type: 3}
      propertyPath: m_RootOrder
      value: 0
      objectReference: {fileID: 0}
    - target: {fileID: -8679921383154817045, guid: 83269ef14f7e8a149b9776ece7c66dd3,
        type: 3}
      propertyPath: m_LocalEulerAnglesHint.x
      value: 0
      objectReference: {fileID: 0}
    - target: {fileID: -8679921383154817045, guid: 83269ef14f7e8a149b9776ece7c66dd3,
        type: 3}
      propertyPath: m_LocalEulerAnglesHint.y
      value: 0
      objectReference: {fileID: 0}
    - target: {fileID: -8679921383154817045, guid: 83269ef14f7e8a149b9776ece7c66dd3,
        type: 3}
      propertyPath: m_LocalEulerAnglesHint.z
      value: 0
      objectReference: {fileID: 0}
    - target: {fileID: 919132149155446097, guid: 83269ef14f7e8a149b9776ece7c66dd3,
        type: 3}
      propertyPath: m_Name
      value: Barrier_03 (5)
      objectReference: {fileID: 0}
    m_RemovedComponents: []
  m_SourcePrefab: {fileID: 100100000, guid: 83269ef14f7e8a149b9776ece7c66dd3, type: 3}
--- !u!4 &7909167988432107272 stripped
Transform:
  m_CorrespondingSourceObject: {fileID: -8679921383154817045, guid: 83269ef14f7e8a149b9776ece7c66dd3,
    type: 3}
  m_PrefabInstance: {fileID: 7658858374513004771}
  m_PrefabAsset: {fileID: 0}
--- !u!1001 &8950493056268741534
PrefabInstance:
  m_ObjectHideFlags: 0
  serializedVersion: 2
  m_Modification:
    m_TransformParent: {fileID: 2395436607159083013}
    m_Modifications:
    - target: {fileID: -8679921383154817045, guid: 34258e6f387730e4e89c581574f7a60d,
        type: 3}
      propertyPath: m_LocalPosition.x
      value: 8.139555
      objectReference: {fileID: 0}
    - target: {fileID: -8679921383154817045, guid: 34258e6f387730e4e89c581574f7a60d,
        type: 3}
      propertyPath: m_LocalPosition.y
      value: 8.862991
      objectReference: {fileID: 0}
    - target: {fileID: -8679921383154817045, guid: 34258e6f387730e4e89c581574f7a60d,
        type: 3}
      propertyPath: m_LocalPosition.z
      value: 0.12695312
      objectReference: {fileID: 0}
    - target: {fileID: -8679921383154817045, guid: 34258e6f387730e4e89c581574f7a60d,
        type: 3}
      propertyPath: m_LocalRotation.x
      value: -0.5000007
      objectReference: {fileID: 0}
    - target: {fileID: -8679921383154817045, guid: 34258e6f387730e4e89c581574f7a60d,
        type: 3}
      propertyPath: m_LocalRotation.y
      value: 0.49999925
      objectReference: {fileID: 0}
    - target: {fileID: -8679921383154817045, guid: 34258e6f387730e4e89c581574f7a60d,
        type: 3}
      propertyPath: m_LocalRotation.z
      value: 0.49999925
      objectReference: {fileID: 0}
    - target: {fileID: -8679921383154817045, guid: 34258e6f387730e4e89c581574f7a60d,
        type: 3}
      propertyPath: m_LocalRotation.w
      value: 0.5000007
      objectReference: {fileID: 0}
    - target: {fileID: -8679921383154817045, guid: 34258e6f387730e4e89c581574f7a60d,
        type: 3}
      propertyPath: m_RootOrder
      value: 1
      objectReference: {fileID: 0}
    - target: {fileID: -8679921383154817045, guid: 34258e6f387730e4e89c581574f7a60d,
        type: 3}
      propertyPath: m_LocalEulerAnglesHint.x
      value: 0
      objectReference: {fileID: 0}
    - target: {fileID: -8679921383154817045, guid: 34258e6f387730e4e89c581574f7a60d,
        type: 3}
      propertyPath: m_LocalEulerAnglesHint.y
      value: 0
      objectReference: {fileID: 0}
    - target: {fileID: -8679921383154817045, guid: 34258e6f387730e4e89c581574f7a60d,
        type: 3}
      propertyPath: m_LocalEulerAnglesHint.z
      value: 0
      objectReference: {fileID: 0}
    - target: {fileID: 919132149155446097, guid: 34258e6f387730e4e89c581574f7a60d,
        type: 3}
      propertyPath: m_Name
      value: Barrier_02
      objectReference: {fileID: 0}
    m_RemovedComponents: []
  m_SourcePrefab: {fileID: 100100000, guid: 34258e6f387730e4e89c581574f7a60d, type: 3}
--- !u!4 &8916057979380485237 stripped
Transform:
  m_CorrespondingSourceObject: {fileID: -8679921383154817045, guid: 34258e6f387730e4e89c581574f7a60d,
    type: 3}
  m_PrefabInstance: {fileID: 8950493056268741534}
  m_PrefabAsset: {fileID: 0}
